<?xml version="1.0" encoding="utf-8"?>
<!-- Generator: Adobe Illustrator 21.0.0, SVG Export Plug-In . SVG Version: 6.00 Build 0)  -->
<svg version="1.1" id="Layer_1" xmlns="http://www.w3.org/2000/svg" xmlns:xlink="http://www.w3.org/1999/xlink" x="0px" y="0px"
	 viewBox="0 0 24 24" style="enable-background:new 0 0 24 24;" xml:space="preserve">
<g>
	<path d="M23.4,1.9C23.8,2.3,24,2.8,24,3.3v12c0,0.6-0.2,1-0.6,1.4c-0.4,0.4-0.9,0.6-1.4,0.6h-8l1,4h3c0.2,0,0.4,0.1,0.5,0.2
		s0.2,0.3,0.2,0.5s-0.1,0.4-0.2,0.5c-0.1,0.1-0.3,0.2-0.5,0.2H6c-0.2,0-0.4-0.1-0.5-0.2c-0.1-0.1-0.2-0.3-0.2-0.5s0.1-0.4,0.2-0.5
		s0.3-0.2,0.5-0.2h3l1-4H2c-0.6,0-1-0.2-1.4-0.6C0.2,16.4,0,15.9,0,15.3v-12c0-0.6,0.2-1,0.6-1.4S1.4,1.3,2,1.3h20
		C22.6,1.3,23,1.5,23.4,1.9z M22.7,13.3H1.3v2c0,0.2,0.1,0.4,0.2,0.5C1.6,15.9,1.8,16,2,16h20c0.2,0,0.4-0.1,0.5-0.2
		c0.1-0.1,0.2-0.3,0.2-0.5V13.3z"/>
</g>
</svg>
